…
    ## [1] "Total flights in and out of BDL in 2015 are 79267894"

5.  List the airline and flight number for all flights between LAX and
    JFK on September 26th, 2015.

``` r
LAX_and_JFK <- flights %>% filter(day == 26, month == 9, year == 2015,
                                  (origin == "LAX" & dest == "JFK") | 
                                  (origin == "JFK" & dest == "LAX")) %>% 
                                  select(carrier, flight, dest, origin)%>%
                                  collect()
print(LAX_and_JFK)
```

    ## # A tibble: 60 × 4
    ##    carrier flight dest  origin
    ##    <chr>    <int> <chr> <chr> 
    ##  1 UA         441 LAX   JFK   
    ##  2 B6          24 JFK   LAX   
    ##  3 VX         399 LAX   JFK   
    ##  4 DL        1908 JFK   LAX   
    ##  5 B6          23 LAX   JFK   
    ##  6 AA         118 JFK   LAX   
    ##  7 DL         476 JFK   LAX   
    ##  8 VX         404 JFK   LAX   
    ##  9 AA          34 JFK   LAX   
    ## 10 AA          33 LAX   JFK   
    ## # ℹ 50 more rows
…
print(paste0('Number of distinct female subjects in the stidy are ',num_females))
```

    ## [1] "Number of distinct female subjects in the stidy are 3315"

2.  Find the average absorbance for participants for each study, ordered
    by highest to lowest value.

``` r
mes = tbl(db, 'Measurements')
abs <- mes %>% group_by(SubjectNumber) %>% summarise(avg_abs = mean(Absorbance)) %>% arrange(desc(avg_abs)) %>% collect()
print(abs)
```

    ## # A tibble: 6,582 × 2
    ##    SubjectNumber avg_abs
    ##            <int>   <dbl>
    ##  1           804   0.962
    ##  2          1563   0.934
    ##  3          2092   0.932
    ##  4          1609   0.930
    ##  5          1646   0.929
    ##  6          1928   0.926
    ##  7        322023   0.925
    ##  8          1980   0.913
    ##  9          1627   0.911
    ## 10          1823   0.909
    ## # ℹ 6,572 more rows
…
